i / f = -1073741824
i / f = 1.428571
i * f = 0
i * f = 17.500000
i + f = 0
i + f = 8.500000
i - f = 0
i - f = 1.500000
f / i = 1610612736
f / i = 0.700000
f * i = 0
f * i = 17.500000
f + i = 0
f + i = 8.500000
f - i = 0
f - i = -1.500000
